

## New Warnings

print("Loading warnings2.nas bitches");

var base = props.globals.getNode("/systems/new-warnings",1);

var warning = {
     new: func( nodename ) {
	    var w = { parents: [warning] };
	    w.base = base.addChild(n);
		}
	};
	
warning.new(titwank);